%YAML 1.1
%TAG !u! tag:unity3d.com,2011:
--- !u!1045 &1
EditorBuildSettings:
  m_ObjectHideFlags: 0
  serializedVersion: 2
  m_Scenes:
  - enabled: 1
    path: Assets/Scenes/MainMenu.unity
    guid: ba33bfb0fe88d934da35754a3b7e2a10
  - enabled: 1
    path: Assets/Scenes/Level1.unity
    guid: b07cd0ed764d89d4fb3a9238fd45b1e1
  - enabled: 1
    path: Assets/Scenes/Level2.unity
    guid: 1fdb83e898da42b4e91747fd6f7c00c7
  - enabled: 1
    path: Assets/Scenes/Level3.unity
    guid: fe5ba77baf936b5408e1f9dd90480a08
  - enabled: 1
    path: Assets/Scenes/Level4.unity
    guid: 2819a18181b982643840c4e9d17942d7
  m_configObjects: {}
